{
  "id": "doc-docusaurus",
  "title": "Documentation Docusaurus",
  "description": "You can write JSX and use React components within your Markdown thanks to [MDX](https://mdxjs.com/).",
  "source": "@site/docs/mdx.md",
  "permalink": "/docs/doc-docusaurus",
  "editUrl": "https://gitlab.com/debat-public/documentation/docs/mdx.md",
  "sidebar": "someSidebar",
  "previous": {
    "title": "Go Backend",
    "permalink": "/docs/go-backend"
  },
  "next": {
    "title": "Gitlab",
    "permalink": "/docs/gitlab"
  }
}